DAM AT1 Part A
…
large_trans

## # A tibble: 1 x 5
##   date       customer_id                      industry location monthly_amount
##   <date>     <fct>                            <fct>    <fct>             <dbl>
## 1 16-10-01   ecf4afbea9a7f57c4c6da70593361d67 6        1             100000000

#only one transaction of 100mm

largeish_trans <- transactions %>%
  filter(monthly_amount >= 50000000)

largeish_trans

## # A tibble: 42 x 5
##    date       customer_id                      industry location monthly_amount
##    <date>     <fct>                            <fct>    <fct>             <dbl>
##  1 13-01-01   23755432da68528f115c9633c0d7834f 6        1             51543872.
##  2 13-06-01   23755432da68528f115c9633c0d7834f 6        1             54222693.
##  3 13-07-01   23755432da68528f115c9633c0d7834f 6        1             56872964.
##  4 13-08-01   23755432da68528f115c9633c0d7834f 6        1             56369520.
##  5 13-09-01   23755432da68528f115c9633c0d7834f 6        1             61049749.
##  6 13-10-01   23755432da68528f115c9633c0d7834f 6        1             61513465.
##  7 13-11-01   23755432da68528f115c9633c0d7834f 6        1             59452274.
##  8 13-12-01   23755432da68528f115c9633c0d7834f 6        1             71974469.
##  9 14-01-01   23755432da68528f115c9633c0d7834f 6        1             63385958.
## 10 14-03-01   23755432da68528f115c9633c0d7834f 6        1             53960928.
## #  with 32 more rows
…
